TidyTuesday Swatches
…
```r
read_csv(raw_csv_links[2])
```

```
## Rows: 3220 Columns: 37-- Column specification --------------------------------------------------------
## Delimiter: ","
## chr  (2): State, County
## dbl (35): CensusId, TotalPop, Men, Women, Hispanic, White, Black, Native, As...
## i Use `spec()` to retrieve the full column specification for this data.
## i Specify the column types or set `show_col_types = FALSE` to quiet this message.
```

```
## # A tibble: 3,220 x 37
##    CensusId State  County TotalPop   Men Women Hispanic White Black Native Asian
##       <dbl> <chr>  <chr>     <dbl> <dbl> <dbl>    <dbl> <dbl> <dbl>  <dbl> <dbl>
##  1     1001 Alaba~ Autau~    55221 26745 28476      2.6  75.8  18.5    0.4   1  
##  2     1003 Alaba~ Baldw~   195121 95314 99807      4.5  83.1   9.5    0.6   0.7
##  3     1005 Alaba~ Barbo~    26932 14497 12435      4.6  46.2  46.7    0.2   0.4
##  4     1007 Alaba~ Bibb      22604 12073 10531      2.2  74.5  21.4    0.4   0.1
##  5     1009 Alaba~ Blount    57710 28512 29198      8.6  87.9   1.5    0.3   0.1
##  6     1011 Alaba~ Bullo~    10678  5660  5018      4.4  22.2  70.7    1.2   0.2
##  7     1013 Alaba~ Butler    20354  9502 10852      1.2  53.3  43.8    0.1   0.4
##  8     1015 Alaba~ Calho~   116648 56274 60374      3.5  73    20.3    0.2   0.9
##  9     1017 Alaba~ Chamb~    34079 16258 17821      0.4  57.3  40.3    0.2   0.8
## 10     1019 Alaba~ Chero~    26008 12975 13033      1.5  91.7   4.8    0.6   0.3
## # ... with 3,210 more rows, and 26 more variables: Pacific <dbl>,
## #   Citizen <dbl>, Income <dbl>, IncomeErr <dbl>, IncomePerCap <dbl>,
## #   IncomePerCapErr <dbl>, Poverty <dbl>, ChildPoverty <dbl>,
## #   Professional <dbl>, Service <dbl>, Office <dbl>, Construction <dbl>,
## #   Production <dbl>, Drive <dbl>, Carpool <dbl>, Transit <dbl>, Walk <dbl>,
## #   OtherTransp <dbl>, WorkAtHome <dbl>, MeanCommute <dbl>, Employed <dbl>,
## #   PrivateWork <dbl>, PublicWork <dbl>, SelfEmployed <dbl>, ...
```
…
